
g_greedy_grin_column_4 = {
	slot = 4
	generic = no
	ai = yes
	potential = {
		tag = H82
	}
	has_country_shield = yes

    g_the_despoilers_of_hehodovar = {
		icon = mission_armoury
		position = 1
		required_missions = {

		}
		trigger = {
			treasury = 80
		}
		
		effect = {
			add_treasury = -30
			add_army_tradition = 20
		}
	}
	g_despoiling_seghdihr = {
		icon = mission_warrior_gold
		position = 2
		required_missions = {
			g_the_despoilers_of_hehodovar
		}
		trigger = {
			controls = 4124
		}
		
		effect = {
			4124 = {
				add_devastation = 100
			}
			country_event = { 
				id = cavegoblinflavor.5
				days = 0
			}
			2914 = {
				add_permanent_claim = FROM
			}
		}
	}
	g_the_hold_of_gold = { #this is way too easy to be the penultimate
		icon = reform_the_monte
		position = 4
		required_missions = {
			g_despoiling_seghdihr
		}
		trigger = {	
			owns = 2914
		}
		
		effect = {
			add_years_of_income = 1
			set_capital = 2914
			2914 = {
				change_trade_goods = gold
			}
		}
	}
	g_buying_our_way_to_bigness = {
		icon = mission_african_gold
		position = 5
		required_missions = {
			g_the_hold_of_gold
		}
		trigger = {
			treasury = 1000
			2914 = {
				base_production = 20
			}
		}
		
		effect = {
			add_country_modifier = {
				name = cave_goblin_extra_colonist
				duration = 9125
			}
		}
	}
	g_prospecting_for_more_gold = {
		icon = mission_zambezi_gold
		position = 6
		required_missions = {
			g_buying_our_way_to_bigness
		}
		trigger = {
			calc_true_if = {
				all_owned_province = {
					NOT = {
						trade_goods = gold
						trade_goods = mithril
						trade_goods = damestear
					}
					base_production = 6
					NOT = {
						has_terrain = dwarven_hold
						has_terrain = dwarven_hold_surface
						has_terrain = dwarven_road
						has_province_modifier = big_fungi
					}
				}
				amount = 4
			}

		}
		effect = {
			random_owned_province = {
				limit = {
					NOT = {
						trade_goods = gold
						trade_goods = mithril
						trade_goods = damestear
					}
					base_production = 6
					NOT = {
						has_terrain = dwarven_hold
						has_terrain = dwarven_hold_surface
						has_terrain = dwarven_road
						has_province_modifier = big_fungi
					}
				}
				change_trade_goods = gold
			}
			random_owned_province = {
				limit = {
					NOT = {
						trade_goods = gold
						trade_goods = mithril
						trade_goods = damestear
					}
					base_production = 6
					NOT = {
						has_terrain = dwarven_hold
						has_terrain = dwarven_hold_surface
						has_terrain = dwarven_road
						has_province_modifier = big_fungi
					}
				}
				change_trade_goods = gold
			}
			random_owned_province = {
				limit = {
					NOT = {
						trade_goods = gold
						trade_goods = mithril
						trade_goods = damestear
					}
					base_production = 6
					NOT = {
						has_terrain = dwarven_hold
						has_terrain = dwarven_hold_surface
						has_terrain = dwarven_road
						has_province_modifier = big_fungi
					}
				}
				change_trade_goods = gold
			}
		}
	}
	g_the_coin_filled_mountains = {
		icon = mission_entrepot_of_india
		position = 7
		required_missions = {
			g_prospecting_for_more_gold
		}
		trigger = {
			gold_income = 30
		}
		
		effect = {
			add_country_modifier = {
				name = cave_goblin_greedy_grin
				duration = -1
			}
			swap_free_idea_group = yes
			override_country_name = BLOKROKLAN # Treasure Clan
		}
	}
}

